Text Mining
…
tidy_SCJH.2 <- tidy_SCJH %>%
  anti_join(stop_words)

Now in order to examine the impact of removing these filler words, we can use the count() function to examine the frequencies of different words. This when sorted, will produce a table of frequencies in descending order.

Question 5. Use the function count() to compare the frequencies of words in the data frames tidy_AAIWL and tidy_AAIWL.2, do you notice a difference in the top 10 words which most commonly occur in the text?

Hint: As with Question 1, ensure to use the piping operator (%>%) to easily apply the function.

tidy_AAIWL %>%
  count(word, sort = TRUE)

## # A tibble: 2,318 x 2
##    word      n
##    <chr> <int>
##  1 the    1676
##  2 a       913
##  3 and     899
##  4 to      757
##  5 it      599
##  6 she     543
##  7 of      523
##  8 i       492
##  9 said    466
## 10 alic    391
## #  with 2,308 more rows

tidy_AAIWL.2 %>%
  count(word, sort = TRUE)

## # A tibble: 2,019 x 2
##    word      n
##    <chr> <int>
##  1 alic    391
##  2 wa      353
##  3 thi     135
##  4 littl   132
##  5 veri    132
##  6 thei    131
##  7 time     79
##  8 queen    74
##  9 sai      69
## 10 head     63
## #  with 2,009 more rows

tidy_PODG %>%
  count(word, sort = TRUE)

## # A tibble: 5,017 x 2
##    word      n
##    <chr> <int>
##  1 the    3762
##  2 i      2595
##  3 a      2244
##  4 and    2211
##  5 of     2175
##  6 to     2101
##  7 he     1539
##  8 it     1464
##  9 you    1444
## 10 that   1360
## #  with 5,007 more rows

tidy_PODG.2 %>%
  count(word, sort = TRUE)

## # A tibble: 4,714 x 2
##    word       n
##    <chr>  <int>
##  1 wa      1083
##  2 dorian   410
##  3 ar       373
##  4 thei     318
##  5 lord     248
##  6 life     229
##  7 henri    223
##  8 grai     189
##  9 harri    174
## 10 ha       169
## #  with 4,704 more rows

tidy_Drac %>%
  count(word, sort = TRUE)

## # A tibble: 6,810 x 2
##    word      n
##    <chr> <int>
##  1 the    7910
##  2 i      6302
##  3 and    5907
##  4 to     4665
##  5 a      4544
##  6 of     3629
##  7 he     2567
##  8 in     2509
##  9 that   2469
## 10 it     2291
## #  with 6,800 more rows

tidy_Drac.2 %>%
  count(word, sort = TRUE)

## # A tibble: 6,469 x 2
##    word      n
##    <chr> <int>
##  1 wa     1879
##  2 thi     631
##  3 ar      582
##  4 thei    463
##  5 time    446
##  6 mai     414
##  7 ha      349
##  8 hand    339
##  9 night   323
## 10 van     323
## #  with 6,459 more rows

tidy_SCJH %>%
  count(word, sort = TRUE)

## # A tibble: 3,119 x 2
##    word      n
##    <chr> <int>
##  1 the    1608
##  2 and     972
##  3 of      937
##  4 a       820
##  5 i       780
##  6 to      645
##  7 wa      468
##  8 in      424
##  9 he      378
## 10 it      375
## #  with 3,109 more rows

tidy_SCJH.2 %>%
  count(word, sort = TRUE)

## # A tibble: 2,819 x 2
##    word         n
##    <chr>    <int>
##  1 wa         468
##  2 thi        148
##  3 utterson   128
##  4 hyde        97
##  5 jekyl       83
##  6 hand        69
##  7 lawyer      68
##  8 pool        61
##  9 veri        60
## 10 sir         59
## #  with 2,809 more rows
…
Step 2: Filtering the Focus

From this you can use the inner_join() function passing the argument nrc_fear to isolate only the words on this list.

Question 18. Using the inner_join() and count() functions to create a list of the fear words and their frequencies within your tided text.

tidy_AAIWL.3 %>% 
  inner_join(nrc_fear) %>%
  count(word, sort = TRUE)

## Joining, by = "word"

## # A tibble: 132 x 2
##    word           n
##    <chr>      <int>
##  1 court         19
##  2 mad           16
##  3 change        14
##  4 afraid        12
##  5 serpent        9
##  6 watch          9
##  7 feeling        7
##  8 frightened     7
##  9 broken         6
## 10 dreadfully     6
## #  with 122 more rows

tidy_PODG.3 %>% 
  inner_join(nrc_fear) %>%
  count(word, sort = TRUE)

## Joining, by = "word"

## # A tibble: 345 x 2
##    word         n
##    <chr>    <int>
##  1 afraid      61
##  2 horrible    48
##  3 dreadful    43
##  4 terrible    40
##  5 bad         37
##  6 mad         36
##  7 youth       36
##  8 death       32
##  9 hideous     32
## 10 pain        30
## #  with 335 more rows

tidy_Drac.3 %>% 
  inner_join(nrc_fear) %>%
  count(word, sort = TRUE)

## Joining, by = "word"

## # A tibble: 529 x 2
##    word         n
##    <chr>    <int>
##  1 god        150
##  2 fear       137
##  3 terrible   100
##  4 death       94
##  5 watch       64
##  6 die         45
##  7 change      44
##  8 afraid      41
##  9 doubt       41
## 10 fire        41
## #  with 519 more rows

tidy_SCJH.3 %>% 
  inner_join(nrc_fear) %>%
  count(word, sort = TRUE)

## Joining, by = "word"

## # A tibble: 268 x 2
##    word       n
##    <chr>  <int>
##  1 lawyer    67
##  2 god       22
##  3 fire      18
##  4 evil      17
##  5 death     15
##  6 change    14
##  7 fear      14
##  8 terror    13
##  9 horror    12
## 10 court     11
## #  with 258 more rows
…
